Division,WeightClassKg,Place,Name,Team,BodyweightKg,Best3SquatKg,Best3BenchKg,Best3DeadliftKg,TotalKg,Equipment,Event,Sex
Boys,51.71,1,Taylor Nobles,Yoakum,48.53,97.52,43.09,115.67,256.28,Single-ply,SBD,M
Boys,51.71,2,Bryan Priddy,Skidmore-Tynan,48.63,83.91,61.23,111.13,256.28,Single-ply,SBD,M
Boys,51.71,3,Dylan Torres,Runge,50.35,90.72,52.16,113.4,256.28,Single-ply,SBD,M
Boys,51.71,4,Shawn Bentley,Poth,45.54,65.77,31.75,77.11,174.63,Single-ply,SBD,M
Boys,59.87,1,Michael Casarez,Three Rivers,55.97,117.93,61.23,154.22,333.39,Single-ply,SBD,M
Boys,55.79,2,Darion McMahan,Stockdale,54.79,140.61,68.04,120.2,328.85,Single-ply,SBD,M
Boys,55.79,3,Andrew Garlin,Skidmore-Tynan,55.16,122.47,83.91,120.2,326.59,Single-ply,SBD,M
Boys,55.79,4,Sebastian Hernandez,Skidmore-Tynan,54.16,106.59,56.7,99.79,263.08,Single-ply,SBD,M
Boys,55.79,5,Trevor Moczygemba,Poth,52.44,72.57,43.09,90.72,206.38,Single-ply,SBD,M
Boys,59.87,1,Peter Martinez,Yorktown,59.33,129.27,79.38,151.95,360.61,Single-ply,SBD,M
Boys,59.87,2,Tj Romero,Jourdanton,56.61,133.81,77.11,131.54,342.46,Single-ply,SBD,M
Boys,59.87,3,Hogan Lauer,Yoakum,58.6,120.2,65.77,136.08,322.05,Single-ply,SBD,M
Boys,59.87,4,Lucas Alvear,Runge,59.51,108.86,70.31,127.01,306.17,Single-ply,SBD,M
Boys,67.13,5,Kyle Pruski,Poth,60.06,113.4,52.16,115.67,281.23,Single-ply,SBD,M
Boys,67.13,1,Marty Garza,Jourdanton,65.32,176.9,129.27,183.7,489.88,Single-ply,SBD,M
Boys,67.13,2,Jay Garza,Poth,66.22,167.83,117.93,165.56,451.32,Single-ply,SBD,M
Boys,67.13,3,Ryan Berkovsky,Yoakum,63.14,158.76,95.25,185.97,439.98,Single-ply,SBD,M
Boys,67.13,4,Koby Caka,Yoakum,65.41,140.61,77.11,158.76,376.48,Single-ply,SBD,M
Boys,67.13,5,Carbe Seaman,Victoria St. Joseph,61.23,113.4,92.99,142.88,349.27,Single-ply,SBD,M
Boys,67.13,6,Aj Bustas,Cuero,60.6,113.4,86.18,136.08,335.66,Single-ply,SBD,M
Boys,67.13,7,Jonathon Pesina,Louise,65.32,124.74,70.31,136.08,331.12,Single-ply,SBD,M
Boys,67.13,8,Lane Strieber,Yorktown,67.13,102.06,61.23,124.74,288.03,Single-ply,SBD,M
Boys,67.13,9,Ryan Martinez,Skidmore-Tynan,66.68,99.79,68.04,108.86,276.69,Single-ply,SBD,M
Boys,67.13,10,Cody Lubyinsky,Yorktown,67.04,90.72,65.77,113.4,269.89,Single-ply,SBD,M
Boys,67.13,11,Perry Bone,Stockdale,66.04,97.52,65.77,95.25,258.55,Single-ply,SBD,M
Boys,67.13,12,Justin Vasquez,Runge,62.6,81.65,49.9,117.93,249.48,Single-ply,SBD,M
Boys,67.13,DQ,Randy Solis,Runge,65.77,136.08,,174.63,,Single-ply,SBD,M
Boys,67.13,DQ,Chris Brasher,Runge,64.59,,70.31,111.13,,Single-ply,SBD,M
Boys,67.13,DQ,Tim Campbell,Skidmore-Tynan,64.5,106.59,,106.59,,Single-ply,SBD,M
Boys,67.13,DQ,Aaron Lopez,Jourdanton,65.95,,79.38,136.08,,Single-ply,SBD,M
Boys,74.84,1,Alex Gonzalez #2,Skidmore-Tynan,70.67,199.58,104.33,208.65,512.56,Single-ply,SBD,M
Boys,74.84,2,Andrew Jimenez,Yoakum,73.94,188.24,99.79,176.9,464.93,Single-ply,SBD,M
Boys,74.84,3,Jonathon Hennessey,Victoria St. Joseph,73.12,149.69,97.52,165.56,412.77,Single-ply,SBD,M
Boys,74.84,4,Colton Kalmos,Victoria St. Joseph,73.94,136.08,86.18,183.7,405.97,Single-ply,SBD,M
Boys,74.84,5,Jacob Tumlinson,Victoria St. Joseph,68.67,142.88,92.99,165.56,401.43,Single-ply,SBD,M
Boys,74.84,6,Rex Kutzer,Yoakum,74.66,145.15,95.25,158.76,399.16,Single-ply,SBD,M
Boys,74.84,7,Cole Stremmel,Yorktown,71.76,147.42,83.91,165.56,396.89,Single-ply,SBD,M
Boys,74.84,8,Ryan Anderson,Poth,74.57,129.27,95.25,151.95,376.48,Single-ply,SBD,M
Boys,74.84,9,Marcus Bryan,Runge,72.85,113.4,72.57,145.15,331.12,Single-ply,SBD,M
Boys,74.84,10,Derek Franke,Yorktown,72.21,111.13,77.11,120.2,308.44,Single-ply,SBD,M
Boys,74.84,11,Wyatt Gabrysch,Stockdale,72.39,115.67,61.23,129.27,306.17,Single-ply,SBD,M
Boys,74.84,12,Tanner Maxwell,Stockdale,68.76,92.99,58.97,120.2,272.16,Single-ply,SBD,M
Boys,74.84,13,Aaron Meinecke,Three Rivers,70.76,83.91,56.7,115.67,256.28,Single-ply,SBD,M
Boys,82.1,1,Jacob Muniz,Three Rivers,80.38,170.1,95.25,181.44,446.79,Single-ply,SBD,M
Boys,82.1,2,Chase Wiatrek,Poth,81.28,170.1,92.99,179.17,442.25,Single-ply,SBD,M
Boys,82.1,3,Cody Valle,Victoria St. Joseph,78.47,170.1,86.18,165.56,421.84,Single-ply,SBD,M
Boys,82.1,4,Coleton Jacob,Cuero,81.19,120.2,92.99,165.56,378.75,Single-ply,SBD,M
Boys,82.1,5,Thomas Kyle,Victoria St. Joseph,77.93,124.74,83.91,154.22,362.87,Single-ply,SBD,M
Boys,82.1,6,Chad Brockman,Victoria St. Joseph,77.2,136.08,81.65,142.88,360.61,Single-ply,SBD,M
Boys,82.1,7,Josh Ochoa,Yorktown,76.38,122.47,83.91,147.42,353.8,Single-ply,SBD,M
Boys,82.1,8,Trevor Baumann,Stockdale,78.11,113.4,52.16,113.4,278.96,Single-ply,SBD,M
Boys,89.81,1,Chris Brockman,Victoria St. Joseph,84.37,183.7,124.74,192.78,501.22,Single-ply,SBD,M
Boys,89.81,2,Nick Davila,Jourdanton,84.55,170.1,140.61,176.9,487.61,Single-ply,SBD,M
Boys,89.81,3,Roman Garcia,Kenedy,86.27,170.1,129.27,181.44,480.81,Single-ply,SBD,M
Boys,89.81,4,Charlie VanSickle,Victoria St. Joseph,89.72,170.1,124.74,172.37,467.2,Single-ply,SBD,M
Boys,89.81,5,Hector Alvarado,Stockdale,84.1,170.1,108.86,176.9,455.86,Single-ply,SBD,M
Boys,89.81,6,Clarke Brokman,Victoria St. Joseph,88.45,170.1,97.52,161.03,428.64,Single-ply,SBD,M
Boys,89.81,7,Kolton Kilgore,Victoria St. Joseph,88.45,149.69,104.33,165.56,419.57,Single-ply,SBD,M
Boys,89.81,8,Jacob Vincik,Poth,87,154.22,79.38,154.22,387.82,Single-ply,SBD,M
Boys,89.81,9,Roger Alvarez,Runge,85,108.86,77.11,129.27,315.25,Single-ply,SBD,M
Boys,89.81,10,Harold Rios,Runge,84.82,108.86,61.23,122.47,292.57,Single-ply,SBD,M
Boys,109.77,1,Dillon Novosad,Yoakum,99.88,213.19,124.74,240.4,578.33,Single-ply,SBD,M
Boys,99.79,2,Logan Pickett,Cuero,97.7,199.58,129.27,208.65,537.51,Single-ply,SBD,M
Boys,99.79,3,Dylan Pekar,Yoakum,94.71,190.51,115.67,206.38,512.56,Single-ply,SBD,M
Boys,99.79,4,Anthony Fish,Poth,93.53,181.44,113.4,170.1,464.93,Single-ply,SBD,M
Boys,99.79,5,Tommy Longoria,Cuero,96.25,156.49,106.59,170.1,433.18,Single-ply,SBD,M
Boys,99.79,6,Daniel Diaz,Three Rivers,92.53,151.95,88.45,142.88,383.29,Single-ply,SBD,M
Boys,99.79,7,Chris Diaz,Cuero,92.8,149.69,86.18,142.88,378.75,Single-ply,SBD,M
Boys,99.79,8,Alex Tamez,Louise,92.62,158.76,77.11,136.08,371.95,Single-ply,SBD,M
Boys,99.79,9,Rene Soliz,Runge,92.99,106.59,79.38,133.81,319.78,Single-ply,SBD,M
Boys,109.77,1,Chance Dziuk,Poth,101.33,226.8,147.42,249.48,623.69,Single-ply,SBD,M
Boys,109.77,2,Brandon Brashear,Jourdanton,107.41,226.8,145.15,217.72,589.67,Single-ply,SBD,M
Boys,109.77,3,Brandon Thiry,Yoakum,102.42,165.56,95.25,179.17,439.98,Single-ply,SBD,M
Boys,109.77,4,Korry Huddleston,Yorktown,100.24,142.88,113.4,165.56,421.84,Single-ply,SBD,M
Boys,109.77,DQ,Patrick Osborn,Victoria St. Joseph,101.33,,54.43,120.2,,Single-ply,SBD,M
Boys,124.74,1,Scott Richter,Yoakum,114.4,217.72,147.42,206.38,571.53,Single-ply,SBD,M
Boys,124.74,2,Kaleb Tichkausky,Three Rivers,124.19,213.19,145.15,213.19,571.53,Single-ply,SBD,M
Boys,124.74,3,Tyler Egger,Yorktown,120.66,215.46,129.27,185.97,530.7,Single-ply,SBD,M
Boys,124.74,4,Jose Molina #2,Skidmore-Tynan,115.3,199.58,120.2,199.58,519.36,Single-ply,SBD,M
Boys,124.74,5,Justin Boening,Yoakum,117.12,199.58,108.86,188.24,496.68,Single-ply,SBD,M
Boys,124.74,6,Tyler Verette,Jourdanton,122.2,183.7,124.74,188.24,496.68,Single-ply,SBD,M
Boys,124.74,7,Wade Perry,Victoria St. Joseph,114.49,165.56,88.45,204.12,458.13,Single-ply,SBD,M
Boys,124.74,8,Carlos Reyes #3,Kenedy,124.38,147.42,113.4,183.7,444.52,Single-ply,SBD,M
Boys,124.74,9,Brodie Ruiz,Three Rivers,112.4,183.7,92.99,151.95,428.64,Single-ply,SBD,M
Boys,124.74,10,Chris Sliger,Yorktown,122.83,147.42,92.99,181.44,421.84,Single-ply,SBD,M
Boys,124.74,11,Charlie Hollaway,Victoria St. Joseph,113.58,149.69,72.57,165.56,387.82,Single-ply,SBD,M
Boys,124.74,12,Robby Medrano,Victoria St. Joseph,121.74,142.88,81.65,158.76,383.29,Single-ply,SBD,M
Boys,124.74+,1,Matt Hernandez,Skidmore-Tynan,135.35,215.46,181.44,204.12,601.01,Single-ply,SBD,M
Boys,124.74+,2,Chris Caskey,Cuero,127.28,233.6,131.54,204.12,569.26,Single-ply,SBD,M
Boys,124.74+,3,Jacob Cuellar,Cuero,135.62,226.8,108.86,158.76,494.42,Single-ply,SBD,M
Boys,124.74+,4,Manuel Tijerina,Jourdanton,126.55,197.31,113.4,181.44,492.15,Single-ply,SBD,M
Boys,124.74+,5,Randy Sierra,Cuero,126.19,183.7,92.99,163.29,439.98,Single-ply,SBD,M
