Division,WeightClassKg,Place,Name,Team,BodyweightKg,Best3SquatKg,Best3BenchKg,Best3DeadliftKg,TotalKg,Equipment,Event,Sex
Boys,55.79,1,Angel Bermudez,Poteet,51.89,122.47,79.38,124.74,326.59,Single-ply,SBD,M
Boys,55.79,2,Wesley Lover,Karnes City,51.94,108.86,58.97,122.47,290.3,Single-ply,SBD,M
Boys,51.71,DQ,Devin Medina,Kenedy,51.71,,,,,Single-ply,SBD,M
Boys,55.79,1,Ricky Guerra,Poteet,53.98,163.29,99.79,165.56,428.64,Single-ply,SBD,M
Boys,55.79,2,Robert Morin,Karnes City,55.52,108.86,68.04,133.81,310.71,Single-ply,SBD,M
Boys,55.79,3,Tom Palacio,Nixon Smiley,53.52,106.59,74.84,127.01,308.44,Single-ply,SBD,M
Boys,55.79,4,Victor Monsevias,Kenedy,54.25,102.06,61.23,136.08,299.37,Single-ply,SBD,M
Boys,55.79,5,Jacob Hinojosa,Kenedy,54.43,95.25,68.04,127.01,290.3,Single-ply,SBD,M
Boys,67.13,1,Darion McMahan,Stockdale,60.1,215.46,136.08,213.19,564.72,Single-ply,SBD,M
Boys,59.87,2,Miguel Hernandez,Nixon Smiley,59.24,156.49,92.99,176.9,426.38,Single-ply,SBD,M
Boys,59.87,3,John Dugi,Stockdale,59.51,147.42,97.52,176.9,421.84,Single-ply,SBD,M
Boys,59.87,4,Caden Fishbeck,Yoakum,59.06,111.13,54.43,133.81,299.37,Single-ply,SBD,M
Boys,59.87,DQ,Martin Rosales,Yoakum,59.87,,,,,Single-ply,SBD,M
Boys,59.87,DQ,Steven Sangster,Yoakum,59.87,,,,,Single-ply,SBD,M
Boys,67.13,1,Matt Valadez,Stockdale,66.77,199.58,113.4,213.19,526.17,Single-ply,SBD,M
Boys,67.13,2,Jacob Perez #3,Nixon Smiley,64.86,181.44,106.59,183.7,471.74,Single-ply,SBD,M
Boys,67.13,3,Francisco Martinez,Poteet,66.77,145.15,92.99,149.69,387.82,Single-ply,SBD,M
Boys,67.13,4,Hector Campos,Nixon Smiley,65.59,129.27,81.65,154.22,365.14,Single-ply,SBD,M
Boys,67.13,5,Coleman Williams,Karnes City,67.04,124.74,74.84,140.61,340.19,Single-ply,SBD,M
Boys,67.13,6,Craig Jacobs,Center Point,62.69,136.08,70.31,124.74,331.12,Single-ply,SBD,M
Boys,67.13,7,Cody Kotara,Stockdale,66.22,115.67,70.31,131.54,317.51,Single-ply,SBD,M
Boys,67.13,8,Chris Cherry,Center Point,64.41,115.67,77.11,117.93,310.71,Single-ply,SBD,M
Boys,67.13,DQ,Kris Guzman,Poteet,67.13,,,,,Single-ply,SBD,M
Boys,67.13,DQ,Cristian Castillo,Yoakum,67.13,,,,,Single-ply,SBD,M
Boys,67.13,DQ,Devante Mathis,Yoakum,67.13,,,,,Single-ply,SBD,M
Boys,67.13,DQ,Justin Fish,Poth,62.14,122.47,,,,Single-ply,SBD,M
Boys,67.13,DQ,Collin Lybarger,Karnes City,67.13,,,,,Single-ply,SBD,M
Boys,74.84,1,Kody Perez,Yoakum,70.49,195.04,117.93,217.72,530.7,Single-ply,SBD,M
Boys,74.84,2,Matt Chapa,Center Point,74.57,172.37,111.13,149.69,433.18,Single-ply,SBD,M
Boys,74.84,3,Perry Bone,Stockdale,71.94,154.22,102.06,158.76,415.04,Single-ply,SBD,M
Boys,74.84,4,Lemuel Ramirez,Center Point,73.66,167.83,92.99,147.42,408.23,Single-ply,SBD,M
Boys,74.84,5,Conner McLaughlin,Stockdale,74.12,131.54,99.79,163.29,394.63,Single-ply,SBD,M
Boys,74.84,6,Matt Chapa,Poteet,72.67,142.88,104.33,145.15,392.36,Single-ply,SBD,M
Boys,74.84,7,Travis Dominquez,Yoakum,68.4,147.42,92.99,142.88,383.29,Single-ply,SBD,M
Boys,74.84,8,Caleb Schendel,Yorktown,71.21,136.08,97.52,149.69,383.29,Single-ply,SBD,M
Boys,74.84,9,Devyn Schultz,Kenedy,72.67,122.47,83.91,156.49,362.87,Single-ply,SBD,M
Boys,74.84,10,Robbie Whittley,Yoakum,74.39,120.2,74.84,136.08,331.12,Single-ply,SBD,M
Boys,74.84,11,Joey White,Kenedy,69.31,102.06,72.57,122.47,297.1,Single-ply,SBD,M
Boys,74.84,DQ,Marvin Davis,Yoakum,74.84,,,,,Single-ply,SBD,M
Boys,82.1,1,Andrew Jimenez,Yoakum,78.65,238.14,127.01,215.46,580.6,Single-ply,SBD,M
Boys,82.1,2,Mario Munoz,Center Point,76.2,206.38,113.4,174.63,494.42,Single-ply,SBD,M
Boys,82.1,3,Lawrence Carrasco,Karnes City,81.01,161.03,120.2,208.65,489.88,Single-ply,SBD,M
Boys,82.1,4,Nick Quintanilla,Karnes City,77.66,183.7,104.33,183.7,471.74,Single-ply,SBD,M
Boys,82.1,5,Steven Perez,Yorktown,79.47,170.1,102.06,181.44,453.59,Single-ply,SBD,M
Boys,82.1,6,Christian Rodriguez,Stockdale,77.02,167.83,88.45,195.04,451.32,Single-ply,SBD,M
Boys,82.1,7,Oscar Torres,Nixon Smiley,81.92,122.47,95.25,156.49,374.21,Single-ply,SBD,M
Boys,82.1,8,Elias Estrada,Karnes City,80.01,142.88,77.11,149.69,369.68,Single-ply,SBD,M
Boys,82.1,9,Xzavier Reyes,Poteet,76.2,83.91,72.57,129.27,285.76,Single-ply,SBD,M
Boys,82.1,DQ,Trenton Bridges,Yoakum,82.1,,,,,Single-ply,SBD,M
Boys,89.81,1,Chase Wiatrek,Poth,88.72,199.58,138.35,204.12,542.04,Single-ply,SBD,M
Boys,89.81,2,Robert Duenes,Karnes City,88.27,188.24,104.33,213.19,505.76,Single-ply,SBD,M
Boys,89.81,3,Rio Rodriguez,Nixon Smiley,86.27,154.22,90.72,176.9,421.84,Single-ply,SBD,M
Boys,89.81,DQ,Matt Gamez,Poteet,89.81,,,,,Single-ply,SBD,M
Boys,89.81,DQ,Caleb Lemke,Yorktown,89.81,,,,,Single-ply,SBD,M
Boys,89.81,DQ,Paul Flores,Yoakum,89.81,,,,,Single-ply,SBD,M
Boys,89.81,DQ,Eddie Villarreal,Kenedy,89.81,,,,,Single-ply,SBD,M
Boys,99.79,1,Derek Franke,Yorktown,93.89,213.19,151.95,215.46,580.6,Single-ply,SBD,M
Boys,99.79,2,Kolby Janek,Poth,94.44,204.12,145.15,210.92,560.19,Single-ply,SBD,M
Boys,99.79,3,Weston Block,Karnes City,92.99,215.46,131.54,210.92,557.92,Single-ply,SBD,M
Boys,99.79,4,Austin Block,Karnes City,92.62,213.19,122.47,208.65,544.31,Single-ply,SBD,M
Boys,99.79,5,Trey Sauceda,Karnes City,91.9,167.83,108.86,172.37,449.06,Single-ply,SBD,M
Boys,99.79,6,Aaron Lopez,Karnes City,94.26,167.83,95.25,154.22,417.3,Single-ply,SBD,M
Boys,99.79,7,Bryce Sandoval,Poteet,93.53,156.49,99.79,149.69,405.97,Single-ply,SBD,M
Boys,99.79,8,David Delacruz,Poth,99.43,151.95,88.45,158.76,399.16,Single-ply,SBD,M
Boys,99.79,DQ,Nathaniel Alvarez,Kenedy,99.79,,,,,Single-ply,SBD,M
Boys,109.77,1,Logan McMain,Nixon Smiley,108.23,204.12,136.08,213.19,553.38,Single-ply,SBD,M
Boys,109.77,2,Gabriel García,Yoakum,106.68,226.8,120.2,204.12,551.11,Single-ply,SBD,M
Boys,109.77,3,Nick Guzman,Karnes City,104.33,170.1,113.4,192.78,476.27,Single-ply,SBD,M
Boys,109.77,4,Neal Formolo,Yoakum,104.24,167.83,102.06,142.88,412.77,Single-ply,SBD,M
Boys,109.77,5,Carson Klesel,Yoakum,102.6,99.79,52.16,117.93,269.89,Single-ply,SBD,M
Boys,109.77,DQ,Andrew Padilla,Poteet,109.77,,,,,Single-ply,SBD,M
Boys,109.77,DQ,Adrian Contreras,Poteet,109.77,,,,,Single-ply,SBD,M
Boys,109.77,DQ,Robert Herrera,Yoakum,109.77,,,,,Single-ply,SBD,M
Boys,109.77,DQ,Josh Carroll,Stockdale,109.77,,,,,Single-ply,SBD,M
Boys,124.74,1,John Mendoza,Karnes City,113.22,249.48,145.15,249.48,644.1,Single-ply,SBD,M
Boys,124.74,2,Chris Trujillo,Center Point,111.49,208.65,122.47,195.04,526.17,Single-ply,SBD,M
Boys,124.74,3,Ronnie Lucio,Poteet,124.74,233.6,95.25,183.7,512.56,Single-ply,SBD,M
Boys,124.74,4,Lucas Janysek,Karnes City,118.39,174.63,117.93,204.12,496.68,Single-ply,SBD,M
Boys,124.74,5,Cody Martin,Center Point,114.58,181.44,99.79,181.44,462.66,Single-ply,SBD,M
Boys,124.74,6,Tim Salas,Kenedy,117.03,113.4,81.65,136.08,331.12,Single-ply,SBD,M
Boys,124.74,DQ,Jesus Banda,Yoakum,124.74,,,,,Single-ply,SBD,M
Boys,124.74,DQ,Nathan Hernandez,Kenedy,124.74,,,,,Single-ply,SBD,M
Boys,124.74+,1,Trent Enriquez,Karnes City,125.92,199.58,111.13,154.22,464.93,Single-ply,SBD,M
Boys,124.74+,2,Robby Gutierrez,Kenedy,128,154.22,86.18,167.83,408.23,Single-ply,SBD,M
Boys,124.74+,DQ,Earl Morin,Karnes City,127.01,,,,,Single-ply,SBD,M
