Division,WeightClassKg,Place,Name,Team,BodyweightKg,Best3SquatKg,Best3BenchKg,Best3DeadliftKg,TotalKg,Equipment,Event,Sex,BirthDate
Boys,51.71,1,Alan Cruz,Buda Johnson,51.53,111.13,56.7,120.2,288.03,Single-ply,SBD,M,
Boys,51.71,2,Emilio Rangel,Buda Johnson,46.72,97.52,54.43,115.67,267.62,Single-ply,SBD,M,
Boys,51.71,3,Coling Baumann,Kyle Lehman,51.71,83.91,49.9,111.13,244.94,Single-ply,SBD,M,
Boys,51.71,4,David Zamora,Luling,44.63,83.91,40.82,106.59,231.33,Single-ply,SBD,M,
Boys,55.79,1,Eli Edwards,Seguin,55.79,165.56,81.65,183.7,430.91,Single-ply,SBD,M,
Boys,55.79,2,Ethan Brown,Bandera,53.43,151.95,86.18,149.69,387.82,Single-ply,SBD,M,
Boys,55.79,3,Javier Aleman,Karnes City,54.43,129.27,81.65,136.08,347,Single-ply,SBD,M,
Boys,55.79,4,Eric Esquivel,Kyle Lehman,54.52,124.74,81.65,140.61,347,Single-ply,SBD,M,
Boys,55.79,5,Josh Soliz,Seguin,54.7,127.01,74.84,136.08,337.93,Single-ply,SBD,M,
Boys,55.79,6,Calel Henry,Pflugerville Weiss,55.79,120.2,65.77,151.95,337.93,Single-ply,SBD,M,
Boys,55.79,7,Julian Enriquez,Buda Johnson,55.61,120.2,65.77,133.81,319.78,Single-ply,SBD,M,
Boys,55.79,8,Tanner Tucker,Luling,54.7,102.06,61.23,129.27,292.57,Single-ply,SBD,M,
Boys,55.79,9,Juan Hernandez #23,Kyle Lehman,54.43,86.18,68.04,133.81,288.03,Single-ply,SBD,M,
Boys,55.79,10,James Townsend #2,Pflugerville,54.52,102.06,61.23,120.2,283.5,Single-ply,SBD,M,
Boys,55.79,11,Ikaika Engleman,Kyle Lehman,55.52,83.91,52.16,129.27,265.35,Single-ply,SBD,M,
Boys,55.79,12,Cade Bochert,Lockhart,52.34,90.72,45.36,92.99,229.06,Single-ply,SBD,M,
Boys,55.79,DQ,Axel Alnajdawi,Pflugerville Weiss,53.25,92.99,,111.13,,Single-ply,SBD,M,
Boys,59.87,1,Reese Janda,Seguin,59.42,151.95,104.33,156.49,412.77,Single-ply,SBD,M,
Boys,59.87,2,Jesus Recio,Kyle Lehman,59.78,131.54,95.25,172.37,399.16,Single-ply,SBD,M,
Boys,59.87,3,Aidan Flores,Seguin,57.97,149.69,79.38,167.83,396.89,Single-ply,SBD,M,
Boys,59.87,4,Juan Araujo,Taylor,59.69,142.88,61.23,158.76,362.87,Single-ply,SBD,M,
Boys,59.87,5,Lincoln Wiech,Pflugerville Connally,58.42,124.74,61.23,142.88,328.85,Single-ply,SBD,M,
Boys,59.87,6,Dalton Garcia,Kyle Lehman,58.79,122.47,63.5,140.61,326.59,Single-ply,SBD,M,
Boys,59.87,7,Dante Hudson,Pflugerville,58.6,115.67,56.7,106.59,278.96,Single-ply,SBD,M,
Boys,59.87,8,Justin Barcenas,Kyle Lehman,58.15,79.38,58.97,115.67,254.01,Single-ply,SBD,M,
Boys,59.87,9,Sebastian Rodrigues,Luling,58.06,83.91,52.16,115.67,251.74,Single-ply,SBD,M,
Boys,59.87,10,Jose Hernandez #21,Pflugerville,58.6,72.57,54.43,113.4,240.4,Single-ply,SBD,M,
Boys,59.87,11,Cesar Zambrano,Kyle Lehman,58.15,74.84,49.9,108.86,233.6,Single-ply,SBD,M,
Boys,67.13,1,Miguel Ochoa,Taylor,65.59,183.7,102.06,188.24,474,Single-ply,SBD,M,
Boys,67.13,2,Brian Burns,Bandera,66.59,183.7,92.99,190.51,467.2,Single-ply,SBD,M,
Boys,67.13,3,Michael Nguyen,Pflugerville,65.95,161.03,90.72,156.49,408.23,Single-ply,SBD,M,
Boys,67.13,4,Roberto Rodriguez #6,Pflugerville,67.13,151.95,102.06,154.22,408.23,Single-ply,SBD,M,
Boys,67.13,5,Garrett Schlottman,Kyle Lehman,66.13,129.27,77.11,170.1,376.48,Single-ply,SBD,M,
Boys,67.13,6,Matthew Statin,Bandera,65.68,140.61,90.72,142.88,374.21,Single-ply,SBD,M,
Boys,67.13,7,Roman Mason,Pflugerville Connally,63.14,133.81,81.65,145.15,360.61,Single-ply,SBD,M,
Boys,67.13,8,Sincere Alaniz,Karnes City,67.04,127.01,72.57,151.95,351.53,Single-ply,SBD,M,
Boys,67.13,9,Tyler Leonardis,Buda Johnson,63.41,113.4,63.5,115.67,292.57,Single-ply,SBD,M,
Boys,67.13,10,Zeke Martinez,Lockhart,61.6,104.33,65.77,120.2,290.3,Single-ply,SBD,M,
Boys,67.13,11,Dylan Navarrette,Kyle Lehman,65.5,83.91,61.23,140.61,285.76,Single-ply,SBD,M,
Boys,67.13,12,Joseph Suarez,Lockhart,65.5,104.33,56.7,102.06,263.08,Single-ply,SBD,M,
Boys,67.13,13,Zachary Respress,Kyle Lehman,64.5,70.31,61.23,106.59,238.14,Single-ply,SBD,M,
Boys,67.13,DQ,Damian Rundblad,Pflugerville Connally,66.41,102.06,,129.27,,Single-ply,SBD,M,
Boys,74.84,1,Christian Caballero,Buda Hays,74.84,197.31,131.54,240.4,569.26,Single-ply,SBD,M,
Boys,74.84,2,Trevon Moore,Universal City Randolph,71.85,190.51,122.47,170.1,483.08,Single-ply,SBD,M,
Boys,74.84,3,Joel Salazar,Seguin,73.39,167.83,104.33,190.51,462.66,Single-ply,SBD,M,
Boys,74.84,4,Ashton Durst,Buda Johnson,73.12,170.1,88.45,170.1,428.64,Single-ply,SBD,M,
Boys,74.84,5,Michael Kroll,Karnes City,71.4,142.88,106.59,174.63,424.11,Single-ply,SBD,M,
Boys,74.84,6,Branch Robert,Lockhart,69.76,147.42,97.52,167.83,412.77,Single-ply,SBD,M,
Boys,74.84,7,Joseph Nguyen,Pflugerville Connally,70.22,165.56,92.99,145.15,403.7,Single-ply,SBD,M,
Boys,74.84,8,Kevin Garza,Kyle Lehman,74.84,147.42,88.45,158.76,394.63,Single-ply,SBD,M,
Boys,74.84,9,Max Garcia,Kyle Lehman,68.76,140.61,86.18,163.29,390.09,Single-ply,SBD,M,
Boys,74.84,10,Jesael Batres,Lockhart,74.21,142.88,72.57,174.63,390.09,Single-ply,SBD,M,
Boys,74.84,11,Joseph Rosales,Buda Johnson,72.85,158.76,68.04,147.42,374.21,Single-ply,SBD,M,
Boys,74.84,12,Konner Streiff,Kyle Lehman,73.94,142.88,83.91,145.15,371.95,Single-ply,SBD,M,
Boys,74.84,13,Alex Izzaguirre,Buda Johnson,73.03,142.88,74.84,151.95,369.68,Single-ply,SBD,M,
Boys,74.84,14,Marshall Homeyer,Karnes City,71.76,115.67,95.25,147.42,358.34,Single-ply,SBD,M,
Boys,74.84,15,Sean McKinney,Lockhart,71.03,131.54,79.38,138.35,349.27,Single-ply,SBD,M,
Boys,74.84,16,Ashton Anderson,Luling,73.84,122.47,81.65,136.08,340.19,Single-ply,SBD,M,
Boys,74.84,17,Jeffrey Almosara,Kyle Lehman,70.4,129.27,63.5,142.88,335.66,Single-ply,SBD,M,
Boys,74.84,18,Michael Stepp,Pflugerville Weiss,73.21,90.72,52.16,127.01,269.89,Single-ply,SBD,M,
Boys,74.84,19,Donovan Mendoza,Kyle Lehman,72.12,97.52,63.5,97.52,258.55,Single-ply,SBD,M,
Boys,74.84,20,Tyson Gray,Pflugerville Weiss,70.67,90.72,65.77,72.57,229.06,Single-ply,SBD,M,
Boys,82.1,1,Jacob Trujillo,Universal City Randolph,81.56,231.33,136.08,226.8,594.21,Single-ply,SBD,M,
Boys,82.1,2,Josh Hart,Taylor,75.02,181.44,99.79,199.58,480.81,Single-ply,SBD,M,
Boys,82.1,3,Jake Lopez,Buda Hays,81.1,183.7,117.93,174.63,476.27,Single-ply,SBD,M,
Boys,82.1,4,John-Michael Mata,Seguin,76.2,174.63,102.06,192.78,469.47,Single-ply,SBD,M,
Boys,82.1,5,Jerivan Contreros,Seguin,77.29,158.76,99.79,201.85,460.4,Single-ply,SBD,M,
Boys,82.1,6,Bradley Gonzales,Buda Johnson,80.83,179.17,102.06,179.17,460.4,Single-ply,SBD,M,
Boys,82.1,7,Ethan Allen,Kyle Lehman,78.11,170.1,108.86,179.17,458.13,Single-ply,SBD,M,
Boys,82.1,8,Jacob Carter,Buda Johnson,82.1,183.7,97.52,174.63,455.86,Single-ply,SBD,M,
Boys,82.1,9,Sam Heidler,Buda Hays,77.56,167.83,88.45,176.9,433.18,Single-ply,SBD,M,
Boys,82.1,10,Jeremiah Rivera,Karnes City,80.29,172.37,90.72,170.1,433.18,Single-ply,SBD,M,
Boys,82.1,11,Leasar Hernandez,Lockhart,80.1,172.37,90.72,165.56,428.64,Single-ply,SBD,M,
Boys,82.1,12,Jaeden Wendel,Lockhart,78.56,161.03,88.45,176.9,426.38,Single-ply,SBD,M,
Boys,82.1,13,Joseph Duron,Lockhart,75.48,181.44,81.65,147.42,410.5,Single-ply,SBD,M,
Boys,82.1,14,Carson Morris,Universal City Randolph,80.47,158.76,97.52,151.95,408.23,Single-ply,SBD,M,
Boys,82.1,15,Aden Ramirez,Pflugerville Connally,75.48,161.03,70.31,172.37,403.7,Single-ply,SBD,M,
Boys,82.1,16,Lj Kroll,Karnes City,78.47,138.35,79.38,185.97,403.7,Single-ply,SBD,M,
Boys,82.1,17,Codey Ball,Taylor,77.2,149.69,92.99,127.01,369.68,Single-ply,SBD,M,
Boys,82.1,18,Christian Respress,Kyle Lehman,80.29,122.47,77.11,163.29,362.87,Single-ply,SBD,M,
Boys,82.1,19,Izacc Zamora,Geronimo Navarro,82.1,120.2,61.23,170.1,351.53,Single-ply,SBD,M,
Boys,82.1,20,Michael Akalusi,Pflugerville Weiss,76.02,124.74,70.31,142.88,337.93,Single-ply,SBD,M,
Boys,82.1,21,Ethan Robinson,Buda Hays,78.11,124.74,70.31,124.74,319.78,Single-ply,SBD,M,
Boys,89.81,1,Euler de Leon,Geronimo Navarro,85.73,240.4,147.42,238.14,625.96,Single-ply,SBD,M,
Boys,89.81,2,Chanse Hernandez,Seguin,85.28,201.85,138.35,201.85,542.04,Single-ply,SBD,M,
Boys,89.81,3,Jason Iwabuchi,Buda Hays,85.64,201.85,124.74,204.12,530.7,Single-ply,SBD,M,
Boys,89.81,4,John Leandro,Seguin,84.01,195.04,113.4,217.72,526.17,Single-ply,SBD,M,
Boys,89.81,5,Marco Reyes #3,Kyle Lehman,89.36,185.97,124.74,190.51,501.22,Single-ply,SBD,M,
Boys,89.81,6,Tristan Breitenkamp,Geronimo Navarro,85.82,183.7,117.93,174.63,476.27,Single-ply,SBD,M,
Boys,89.81,7,Cris Guzman,Pflugerville,87.36,206.38,115.67,151.95,474,Single-ply,SBD,M,
Boys,89.81,8,Jesse Caward,Taylor,85.91,192.78,120.2,156.49,469.47,Single-ply,SBD,M,
Boys,89.81,9,Troy Howard,Geronimo Navarro,88.18,174.63,102.06,188.24,464.93,Single-ply,SBD,M,
Boys,89.81,10,Javier Sifuentes,Lockhart,84.19,170.1,102.06,183.7,455.86,Single-ply,SBD,M,
Boys,89.81,11,Joshua Arispe,Buda Hays,88.45,167.83,106.59,165.56,439.98,Single-ply,SBD,M,
Boys,89.81,12,Gabriel Arrisola,Kyle Lehman,88.09,147.42,86.18,176.9,410.5,Single-ply,SBD,M,
Boys,89.81,13,Antionio Gomez,Luling,88.36,158.76,92.99,158.76,410.5,Single-ply,SBD,M,
Boys,89.81,14,Joseph Laine,Buda Hays,87.63,136.08,77.11,138.35,351.53,Single-ply,SBD,M,
Boys,89.81,15,Elvis Garcia,Buda Johnson,86.09,142.88,81.65,120.2,344.73,Single-ply,SBD,M,
Boys,89.81,16,Adian Parks,Universal City Randolph,88.72,136.08,79.38,115.67,331.12,Single-ply,SBD,M,
Boys,89.81,17,Cody Hanes,Kyle Lehman,87.54,86.18,58.97,129.27,274.42,Single-ply,SBD,M,
Boys,89.81,DQ,Jared Hamill,Bandera,86.64,117.93,,,,Single-ply,SBD,M,
Boys,99.79,1,Rene Aguirre,Taylor,93.44,247.21,165.56,217.72,630.49,Single-ply,SBD,M,
Boys,99.79,2,David Reyna,Geronimo Navarro,96.34,251.74,163.29,204.12,619.15,Single-ply,SBD,M,
Boys,99.79,3,Cole Booker,Geronimo Navarro,99.79,215.46,133.81,219.99,569.26,Single-ply,SBD,M,
Boys,99.79,4,Michael Cespedes,Universal City Randolph,96.8,222.26,111.13,183.7,517.1,Single-ply,SBD,M,
Boys,99.79,5,Josiah Luna,Seguin,97.61,199.58,111.13,199.58,510.29,Single-ply,SBD,M,
Boys,99.79,6,Millicent Grear,Pflugerville Connally,97.16,183.7,102.06,183.7,469.47,Single-ply,SBD,M,
Boys,99.79,7,Steven Nava,Karnes City,98.07,163.29,115.67,181.44,460.4,Single-ply,SBD,M,
Boys,99.79,8,Jaden Taylor,Taylor,90.26,163.29,117.93,170.1,451.32,Single-ply,SBD,M,
Boys,99.79,9,Caleb Sons,Bandera,96.16,170.1,106.59,170.1,446.79,Single-ply,SBD,M,
Boys,99.79,10,Tristan Boorman,Buda Johnson,93.71,174.63,99.79,165.56,439.98,Single-ply,SBD,M,
Boys,99.79,11,Seth Chavana,Taylor,97.25,167.83,86.18,167.83,421.84,Single-ply,SBD,M,
Boys,99.79,12,Noah de la Torre,Pflugerville,99.56,174.63,102.06,142.88,419.57,Single-ply,SBD,M,
Boys,99.79,13,Mason Moore,Karnes City,93.08,161.03,90.72,142.88,394.63,Single-ply,SBD,M,
Boys,99.79,14,Diego Sosa,Lockhart,99.16,145.15,83.91,145.15,374.21,Single-ply,SBD,M,
Boys,99.79,15,Riley Owen,Lockhart,97.79,142.88,83.91,142.88,369.68,Single-ply,SBD,M,
Boys,99.79,16,Anthony Perez,Kyle Lehman,98.61,129.27,99.79,117.93,347,Single-ply,SBD,M,
Boys,99.79,17,Zayne De La Santos,Lockhart,96.07,158.76,108.86,,267.62,Single-ply,SB,M,
Boys,109.77,1,David Sillero,Lockhart,107.68,233.6,158.76,204.12,596.47,Single-ply,SBD,M,
Boys,109.77,2,Colten Perkins,Bandera,103.96,215.46,149.69,215.46,580.6,Single-ply,SBD,M,
Boys,109.77,3,Andrew Ball,Taylor,107.86,210.92,156.49,185.97,553.38,Single-ply,SBD,M,
Boys,109.77,4,Brandon Glaspie,Universal City Randolph,103.78,217.72,129.27,188.24,535.24,Single-ply,SBD,M,
Boys,109.77,5,Javier Jimenez,Kyle Lehman,101.79,158.76,120.2,208.65,487.61,Single-ply,SBD,M,
Boys,109.77,6,Esau Ortiz,Taylor,100.79,170.1,149.69,158.76,478.54,Single-ply,SBD,M,
Boys,109.77,7,Case Jordan,Buda Johnson,101.97,197.31,92.99,174.63,464.93,Single-ply,SBD,M,
Boys,109.77,8,Garrett Zuma,Buda Johnson,102.97,158.76,79.38,163.29,401.43,Single-ply,SBD,M,
Boys,109.77,9,David Amaro,Luling,103.24,151.95,92.99,147.42,392.36,Single-ply,SBD,M,
Boys,109.77,10,Rafael Santamario,Luling,108.86,154.22,99.79,133.81,387.82,Single-ply,SBD,M,
Boys,109.77,11,Josh Mireles,Lockhart,105.51,124.74,65.77,124.74,315.25,Single-ply,SBD,M,
Boys,124.74,1,Jace Gonzales,Karnes City,112.94,272.16,136.08,226.8,635.03,Single-ply,SBD,M,
Boys,124.74,2,Jordan Moreno,Pflugerville Connally,114.94,199.58,133.81,190.51,523.9,Single-ply,SBD,M,
Boys,124.74,3,Diego Salazar,Pflugerville Connally,117.75,195.04,102.06,183.7,480.81,Single-ply,SBD,M,
Boys,124.74,4,Alex Funnes,Geronimo Navarro,115.21,174.63,117.93,158.76,451.32,Single-ply,SBD,M,
Boys,124.74,5,Jaeden Elizondo,Lockhart,123.83,170.1,70.31,142.88,383.29,Single-ply,SBD,M,
Boys,124.74+,1,Isaiah Samaripa,Lockhart,167.92,285.76,154.22,247.21,687.19,Single-ply,SBD,M,
Boys,124.74+,2,Sergio Hernandez,Geronimo Navarro,154.67,249.48,199.58,235.87,684.92,Single-ply,SBD,M,
Boys,124.74+,3,Carter Holtkamp,Geronimo Navarro,138.07,254.01,158.76,219.99,632.76,Single-ply,SBD,M,
Boys,124.74+,4,Joe Cantu,Pflugerville,159.21,201.85,142.88,183.7,528.44,Single-ply,SBD,M,
Boys,124.74+,5,Shawn Vega,Taylor,154.77,199.58,117.93,185.97,503.49,Single-ply,SBD,M,
Boys,124.74+,6,Zeon Hodge-King,Pflugerville Connally,143.15,111.13,65.77,142.88,319.78,Single-ply,SBD,M,
Boys,124.74+,DQ,Jasean Wislon,Pflugerville,154.67,217.72,,204.12,,Single-ply,SBD,M,
Boys,,NS,Aidan Saldivar,Pflugerville,,,,,,Single-ply,SBD,M,
Boys,,NS,Azreael Valle,Luling,,,,,,Single-ply,SBD,M,
Boys,,NS,Ricky Sequra,Pflugerville Weiss,,,,,,Single-ply,SBD,M,
Boys,,NS,Leo Costilla,Seguin,,,,,,Single-ply,SBD,M,
Boys,,NS,Aidan Garza,Karnes City,,,,,,Single-ply,SBD,M,
Boys,,NS,Justin Montoya,Buda Hays,,,,,,Single-ply,SBD,M,
Boys,,NS,Arik Blanco,Taylor,,,,,,Single-ply,SBD,M,
Boys,,NS,Justin Ramirez,Taylor,,,,,,Single-ply,SBD,M,
Boys,,NS,Joel Scott #2,Taylor,,,,,,Single-ply,SBD,M,
Boys,,NS,Greg Davis,Taylor,,,,,,Single-ply,SBD,M,
Boys,,NS,Jesse Coward,Taylor,,,,,,Single-ply,SBD,M,
Boys,,NS,Devin Saucedo,Taylor,,,,,,Single-ply,SBD,M,
Boys,,NS,Brandon Yanez,Taylor,,,,,,Single-ply,SBD,M,
Boys,,NS,Samuel Maachala,Taylor,,,,,,Single-ply,SBD,M,
Boys,,NS,Romanus Ike,Pflugerville,,,,,,Single-ply,SBD,M,
