Division,WeightClassKg,Place,Name,Team,BodyweightKg,Best3SquatKg,Best3BenchKg,Best3DeadliftKg,TotalKg,Equipment,Event,Sex
Boys,51.71,1,Benny Lara,Victoria West,50.8,158.76,83.91,165.56,408.23,Single-ply,SBD,M
Boys,51.71,2,Cole Terry,Skidmore-Tynan,50.8,129.27,79.38,124.74,333.39,Single-ply,SBD,M
Boys,51.71,3,Caleb Edwards,Goliad,47.17,90.72,45.36,86.18,222.26,Single-ply,SBD,M
Boys,51.71,DQ,Cole Brogger,Vanderbilt Industrial,48.08,,,,,Single-ply,SBD,M
Boys,55.79,1,Adrian Herrera #1,Yoakum,55.34,167.83,90.72,172.37,430.91,Single-ply,SBD,M
Boys,55.79,2,Michael Casillas,Victoria West,55.79,158.76,86.18,170.1,415.04,Single-ply,SBD,M
Boys,55.79,3,Cody Faust,Yoakum,54.43,117.93,77.11,142.88,337.93,Single-ply,SBD,M
Boys,55.79,4,Tino Reyes,Goliad,55.79,124.74,70.31,129.27,324.32,Single-ply,SBD,M
Boys,59.87,1,Arthur Sanchez,Victoria West,57.61,142.88,70.31,156.49,369.68,Single-ply,SBD,M
Boys,59.87,2,Isiah Columns,Goliad,59.87,124.74,61.23,142.88,328.85,Single-ply,SBD,M
Boys,59.87,3,Drake Moya,Beeville Jones,57.15,104.33,61.23,115.67,281.23,Single-ply,SBD,M
Boys,67.13,1,Dustin Torres,Beeville Jones,67.13,183.7,104.33,174.63,462.66,Single-ply,SBD,M
Boys,67.13,2,Denver Evans,Yoakum,67.13,167.83,88.45,163.29,419.57,Single-ply,SBD,M
Boys,67.13,3,Seth O'Canas,Victoria West,67.13,161.03,99.79,142.88,403.7,Single-ply,SBD,M
Boys,67.13,4,Logan Schanan,Skidmore-Tynan,66.68,154.22,74.84,129.27,358.34,Single-ply,SBD,M
Boys,67.13,5,Benjamin Luna,Goliad,62.6,129.27,70.31,127.01,326.59,Single-ply,SBD,M
Boys,67.13,6,Gabriel Gonzales,Goliad,62.14,124.74,70.31,117.93,312.98,Single-ply,SBD,M
Boys,67.13,7,Izaiah Garcia,Skidmore-Tynan,63.05,113.4,65.77,120.2,299.37,Single-ply,SBD,M
Boys,67.13,8,Matthew Bernal,Kenedy,67.13,95.25,54.43,102.06,251.74,Single-ply,SBD,M
Boys,67.13,DQ,David Cruz,Palacios,66.22,102.06,,,,Single-ply,SBD,M
Boys,74.84,1,Derrick Carrol,Beeville Jones,73.94,192.78,111.13,210.92,514.83,Single-ply,SBD,M
Boys,74.84,2,Luke Harms,Vanderbilt Industrial,73.94,170.1,92.99,185.97,449.06,Single-ply,SBD,M
Boys,74.84,3,Andrew Starlin,Victoria West,68.04,161.03,108.86,176.9,446.79,Single-ply,SBD,M
Boys,74.84,4,Trey Ingram,Goliad,74.84,151.95,88.45,158.76,399.16,Single-ply,SBD,M
Boys,74.84,5,Jordan Garza,Yoakum,73.94,108.86,97.52,133.81,340.19,Single-ply,SBD,M
Boys,74.84,6,Gabriel Guajardo,Skidmore-Tynan,69.4,136.08,70.31,131.54,337.93,Single-ply,SBD,M
Boys,74.84,DQ,Nathan Nguyen,Palacios,68.04,83.91,,,,Single-ply,SBD,M
Boys,82.1,1,Chayce Grevey,Victoria West,79.83,242.67,156.49,265.35,664.51,Single-ply,SBD,M
Boys,82.1,2,Patrick Prieto,Beeville Jones,81.19,199.58,120.2,213.19,532.97,Single-ply,SBD,M
Boys,82.1,3,Rudy Casarez,Beeville Jones,81.65,210.92,113.4,208.65,532.97,Single-ply,SBD,M
Boys,82.1,4,Morgan Segovia,Palacios,78.02,195.04,117.93,174.63,487.61,Single-ply,SBD,M
Boys,82.1,DQ,Michael Flores #3,Palacios,79.38,142.88,,,,Single-ply,SBD,M
Boys,82.1,DQ,Cameron Mata,Yoakum,78.93,136.08,,,,Single-ply,SBD,M
Boys,89.81,1,Chris Madrigal,Beeville Jones,86.64,256.28,174.63,244.94,675.85,Single-ply,SBD,M
Boys,89.81,2,Raul Padilla,Victoria West,89.81,204.12,147.42,192.78,544.31,Single-ply,SBD,M
Boys,89.81,3,Adam Nguyen,Palacios,88.45,192.78,111.13,183.7,487.61,Single-ply,SBD,M
Boys,89.81,4,Jacob Arredondo,Beeville Jones,85.73,154.22,102.06,151.95,408.23,Single-ply,SBD,M
Boys,89.81,5,Oscar Segura,Kenedy,87.54,127.01,79.38,163.29,369.68,Single-ply,SBD,M
Boys,89.81,6,Alex Salas,Goliad,88.9,124.74,72.57,138.35,335.66,Single-ply,SBD,M
Boys,89.81,7,Jevon Villarreal,Kenedy,86.64,108.86,72.57,149.69,331.12,Single-ply,SBD,M
Boys,89.81,DQ,Miguel Rivas,Yoakum,89.81,156.49,102.06,149.69,,Single-ply,SBD,M
Boys,99.79,1,Nick Galvan,Beeville Jones,97.98,260.82,170.1,238.14,669.05,Single-ply,SBD,M
Boys,99.79,2,Thomas Puentes,Skidmore-Tynan,97.52,242.67,136.08,136.08,514.83,Single-ply,SBD,M
Boys,99.79,3,Quinton Kristek,Yoakum,94.8,195.04,122.47,179.17,496.68,Single-ply,SBD,M
Boys,99.79,4,Jackson Engel,Palacios,92.08,183.7,102.06,183.7,469.47,Single-ply,SBD,M
Boys,99.79,5,Marcus Hinojosa,Skidmore-Tynan,93.89,183.7,90.72,181.44,455.86,Single-ply,SBD,M
Boys,99.79,6,Riley Kucera,Vanderbilt Industrial,98.88,165.56,106.59,181.44,453.59,Single-ply,SBD,M
Boys,99.79,7,Mason Galvan,Yoakum,97.98,165.56,113.4,170.1,449.06,Single-ply,SBD,M
Boys,99.79,8,Chris Brown #4,Vanderbilt Industrial,92.99,179.17,88.45,172.37,439.98,Single-ply,SBD,M
Boys,99.79,9,John Hart #2,Kenedy,91.63,136.08,81.65,163.29,381.02,Single-ply,SBD,M
Boys,99.79,10,Tj Perez,Kenedy,96.16,111.13,83.91,136.08,331.12,Single-ply,SBD,M
Boys,99.79,DQ,Cesar Jimenez #1,Palacios,94.8,192.78,,,,Single-ply,SBD,M
Boys,99.79,DQ,Shannon Tesch,Vanderbilt Industrial,93.44,158.76,,,,Single-ply,SBD,M
Boys,109.77,1,Ethan Carr,Palacios,101.6,138.35,72.57,129.27,340.19,Single-ply,SBD,M
Boys,124.74,1,Jason Suniga,Victoria West,120.2,283.5,161.03,219.99,664.51,Single-ply,SBD,M
Boys,124.74,2,Fabian Vargas,Goliad,115.67,222.26,140.61,179.17,542.04,Single-ply,SBD,M
Boys,124.74,3,Jaedon Hinchliffe,Palacios,111.13,183.7,115.67,208.65,508.02,Single-ply,SBD,M
Boys,124.74,4,Jaedon Segura,Goliad,119.75,142.88,86.18,138.35,367.41,Single-ply,SBD,M
Boys,124.74,5,Tatum Ramos,Kenedy,124.74,136.08,74.84,138.35,349.27,Single-ply,SBD,M
Boys,124.74,DQ,Nick Gomez,Yoakum,123.83,204.12,,156.49,,Single-ply,SBD,M
Boys,124.74+,1,Ruben Avila,Victoria West,143.79,226.8,136.08,206.38,569.26,Single-ply,SBD,M
Boys,124.74+,2,Ezekiel Palacios,Goliad,127.01,204.12,124.74,183.7,512.56,Single-ply,SBD,M
Boys,124.74+,3,Joey Dominguez,Yoakum,126.55,190.51,108.86,174.63,474,Single-ply,SBD,M
Boys,124.74+,DQ,Daniel Martinez #9,Beeville Jones,136.08,183.7,,,,Single-ply,SBD,M
Boys,124.74+,DQ,Eric Ratley,Yoakum,136.08,154.22,88.45,,,Single-ply,SBD,M
Boys,124.74+,DQ,Xavier Perry,Goliad,125.19,142.88,72.57,,,Single-ply,SBD,M
