Place,Name,Sex,BirthYear,Age,Country,State,Equipment,Division,BodyweightKg,WeightClassKg,Squat1Kg,Squat2Kg,Squat3Kg,Best3SquatKg,Bench1Kg,Bench2Kg,Bench3Kg,Best3BenchKg,Deadlift1Kg,Deadlift2Kg,Deadlift3Kg,Best3DeadliftKg,TotalKg,Event,Tested,BirthDate
1,Martina Rodriguez,F,1993,27,,NV,Wraps,Open,121,90+,192.5,205,212.5,212.5,87.5,92.5,-95.5,92.5,180,190,195,195,500,SBD,Yes,
1,Kimmy Castro,F,2006,15,,NV,Raw,Teen 14-16,128.7,90+,192.5,205,212.5,212.5,67.5,72.5,77.5,77.5,192.5,207.5,210.5,210.5,500.5,SBD,Yes,
1,Krystal Rodriguez,F,2000,20,,NV,Raw,Juniors 20-23,65.05,67.5,110,115,122.5,122.5,62.5,67.5,72.5,72.5,-130,135,142.5,142.5,337.5,SBD,Yes,
1,Imee Rose Dichoso,F,2000,21,,NV,Raw,Juniors 20-23,73.65,75,135,140,145,145,75,80,85,85,140,145,150,150,380,SBD,Yes,
1,Victorina Navarro,F,1971,50,,NV,Raw,Masters 50-54,80.95,82.5,80,90,102.5,102.5,37.5,-45,50,50,87.5,97.5,105,105,257.5,SBD,Yes,
1,Francesca Paraz,F,1993,27,,NV,Raw,Open,54.5,56,112.5,117.5,122.5,122.5,77.5,80,-82.5,80,-147.5,155,160.5,160.5,363,SBD,Yes,
1,La Jeanne Mallett,F,1992,29,,CA,Raw,Open,59.05,60,112.5,120,122.5,122.5,57.5,62.5,-65,62.5,142.5,152.5,-157.5,152.5,337.5,SBD,Yes,
1,Steph Powell,F,1987,34,,NV,Raw,Open,67.2,67.5,170,180,183,183,85,90,93,93,215,227.5,-235.5,227.5,503.5,SBD,Yes,
2,Nyeisha Smith,F,1990,31,,CA,Raw,Open,65.65,67.5,117.5,125,130,130,72.5,80,-85,80,147.5,-157.5,-157.5,147.5,357.5,SBD,Yes,
1,Cherry Lyn Pintado,F,1993,27,,NV,Raw,Open,74.7,75,118,125,135,135,67.5,70,-75,70,145,152.5,160,160,365,SBD,Yes,
2,Genevieve Fischre,F,1986,35,,MI,Raw,Open,73.15,75,112.5,120,127.5,127.5,57.5,62.5,65,65,145,157.5,-170,157.5,350,SBD,Yes,
3,Shannon Ray #1,F,1991,30,,NV,Raw,Open,67.65,75,87.5,95,102.5,102.5,60.5,70,-75,70,105,112.5,120,120,292.5,SBD,Yes,
1,Kimmy Castro,F,2006,15,,NV,Raw,Open,128.7,90+,192.5,205,212.5,212.5,67.5,72.5,77.5,77.5,192.5,207.5,210.5,210.5,500.5,SBD,Yes,
2,Leslie Naumann,F,1981,39,,MO,Raw,Open,116.8,90+,150,-155,155,155,97.5,102.5,107.5,107.5,160,172.5,177.5,177.5,440,SBD,Yes,
1,Genevieve Fischre,F,1986,35,,MI,Raw,Submasters 35-39,73.15,75,112.5,120,127.5,127.5,57.5,62.5,65,65,145,157.5,-170,157.5,350,SBD,Yes,
1,Leslie Naumann,F,1981,39,,MO,Raw,Submasters 35-39,116.8,90+,150,-155,155,155,97.5,102.5,107.5,107.5,160,172.5,177.5,177.5,440,SBD,Yes,
1,Francesca Paraz,F,1993,27,,NV,Raw,Open,54.5,56,,,,,77.5,80,-82.5,80,-147.5,155,160.5,160.5,240.5,BD,Yes,
1,Darion Kelly,M,1997,23,,MO,Wraps,Juniors 20-23,82.15,82.5,230,240,-247.5,240,120,127.5,135,135,272.5,285,295,295,670,SBD,Yes,
1,Ryan Pierce,M,1998,23,,NV,Wraps,Open,64.4,67.5,182.5,195,200,200,115,-120,125,125,180,195,202.5,202.5,527.5,SBD,Yes,
1,Henry Millard,M,1987,34,,IN,Wraps,Open,79.4,82.5,-250,250,-270,250,170,180,-185,180,260,-275,-275,260,690,SBD,Yes,
2,Darion Kelly,M,1997,23,,MO,Wraps,Open,82.15,82.5,230,240,-247.5,240,120,127.5,135,135,272.5,285,295,295,670,SBD,Yes,
1,Geoff Briles,M,1993,28,,CO,Wraps,Open,99.15,100,255,275,-300,275,155,167.5,180,180,270,-285,-285,270,725,SBD,Yes,
2,Albert Leal,M,1989,31,,NV,Wraps,Open,98.55,100,202.5,215,-227.5,215,130,140,145,145,227.5,235,-250,235,595,SBD,Yes,
1,Brandon Pagdanganan,M,1996,25,,NV,Wraps,Open,107.9,110,205,220,-227.5,220,122.5,132.5,137.5,137.5,220,230,235,235,592.5,SBD,Yes,
1,Boris Terry,M,1984,37,,CA,Wraps,Open,120.99,125,312.5,332.5,340,340,202.5,210,215,215,320,340,-352.5,340,895,SBD,Yes,
2,Tristan Siggers,M,1993,28,,NV,Wraps,Open,123.8,125,260,277.5,285,285,170,182.5,185,185,250,270,,270,740,SBD,Yes,
1,Andrew Doversola,M,2005,16,,NV,Raw,Teen 14-16,108.58,110,150,160,-170,160,82.5,87.5,-92.5,87.5,182.5,200,-205,200,447.5,SBD,Yes,
1,Hayden Smith,M,2002,19,,UT,Raw,Teen 18-19,108.85,110,205,217.5,232.5,232.5,132.5,142.5,147.5,147.5,230,250,270,270,650,SBD,Yes,
1,Matthew Dahilig,M,2001,19,,NV,Raw,Teen 18-19,118.6,125,185,-200,-200,185,130,135,-140,135,170,182.5,-190,182.5,502.5,SBD,Yes,
1,Nabil Lahlou,M,1999,22,,VA,Raw,Juniors 20-23,66.65,67.5,205,215,222.5,222.5,-112.5,112.5,120,120,287.5,302.5,-310.5,302.5,645,SBD,Yes,
1,Salvador Vallego-Parra,M,2000,21,,NV,Raw,Juniors 20-23,68.75,75,187.5,-197.5,205,205,117.5,130,-137.5,130,205,220,232.5,232.5,567.5,SBD,Yes,
1,Martin Castro,M,1998,23,,NV,Raw,Juniors 20-23,82.45,82.5,210,220,-227.5,220,-125,145,-157.5,145,240,260,-265,260,625,SBD,Yes,
2,Victor Diaz,M,2000,21,,AZ,Raw,Juniors 20-23,81,82.5,202.5,-212.5,215,215,137.5,-142.5,142.5,142.5,220,-235,-235,220,577.5,SBD,Yes,
1,Justin Redfering,M,1997,23,,MO,Raw,Juniors 20-23,99,100,227.5,-232.5,-232.5,227.5,157.5,162.5,-165,162.5,265,275,280,280,670,SBD,Yes,
2,Pedro Rangel,M,1997,23,,CA,Raw,Juniors 20-23,99.95,100,237.5,250.5,255,255,152.5,-165,-165,152.5,240,-255,255,255,662.5,SBD,Yes,
1,Keith Daniels,M,1967,54,,HI,Raw,Masters 50-54,84.75,90,165,175,182.5,182.5,127.5,142.5,157.5,157.5,200,205,215,215,555,SBD,Yes,
1,Justin Bonaparte,M,1995,25,,NV,Raw,Open,64.6,67.5,185,192.5,200,200,110,117.5,-125,117.5,-215,215,227.5,227.5,545,SBD,Yes,
1,Matthew Sacco,M,1990,31,,NV,Raw,Open,73.15,75,192.5,202.5,210,210,137.5,145,-147.5,145,237.5,250,257.5,257.5,612.5,SBD,Yes,
2,Justin Velicaria,M,1994,26,,NV,Raw,Open,74.4,75,177.5,192.5,202.5,202.5,117.5,125,-137.5,125,222.5,240,255,255,582.5,SBD,Yes,
3,Jacob Echolos,M,1995,25,,CA,Raw,Open,74.75,75,180,190,-200,190,152.5,-157.5,-157.5,152.5,240,-260,-260,240,582.5,SBD,Yes,
1,Julius Erwin,M,1995,26,,NV,Raw,Open,82.4,82.5,220,230,-237.5,230,110,117.5,122.5,122.5,237.5,247.5,255,255,607.5,SBD,Yes,
2,Victor Diaz,M,2000,21,,AZ,Raw,Open,81,82.5,202.5,-212.5,215,215,137.5,-142.5,142.5,142.5,220,-235,-235,220,577.5,SBD,Yes,
3,John Lang,M,1997,24,,CA,Raw,Open,81.8,82.5,182.5,190,197.5,197.5,115,120,125,125,200,210,230,230,552.5,SBD,Yes,
4,Laurence Fortes,M,1986,35,,NV,Raw,Open,81.55,82.5,165,-167.5,175,175,100,107.5,-110,107.5,200,220,-227.5,220,502.5,SBD,Yes,
1,Justin Redfering,M,1997,23,,MO,Raw,Open,99,100,227.5,-232.5,-232.5,227.5,157.5,162.5,-165,162.5,265,275,280,280,670,SBD,Yes,
2,Pedro Rangel,M,1997,23,,CA,Raw,Open,99.95,100,237.5,250.5,255,255,152.5,-165,-165,152.5,240,-255,255,255,662.5,SBD,Yes,
3,Donovan Snider,M,2002,18,,NV,Raw,Open,98.45,100,200,212.5,217.5,217.5,102.5,112.5,115,115,215,232.5,245,245,577.5,SBD,Yes,
4,Kris Campanella,M,1996,24,,NV,Raw,Open,95.95,100,185,-192.5,-200,185,135,140,,140,230,237.5,-245,237.5,562.5,SBD,Yes,
5,David Rosario,M,1994,27,,NY,Raw,Open,94.95,100,167.5,180,187.5,187.5,122.5,137.5,-142.5,137.5,190,210,227.5,227.5,552.5,SBD,Yes,
6,Jerome Santos,M,1996,24,,NV,Raw,Open,97.6,100,140,155,167.5,167.5,95,105,-112.5,105,180,185,200,200,472.5,SBD,Yes,
DQ,Wyatt Coppini,M,2000,21,,NV,Raw,Open,94.3,100,237.5,250,-260,250,140,150,-160,150,-275,-275,-275,,,SBD,Yes,
1,Cas'Sean Eccles,M,1987,33,,NV,Raw,Open,107.8,110,242.5,252.5,260,260,160,170,182.5,182.5,245,260,-275,260,702.5,SBD,Yes,
1,Lino Ramos,M,1992,29,,NV,Raw,Open,124.2,125,192.5,210,-227.5,210,157.5,165,172.5,172.5,260,277.5,292.5,292.5,675,SBD,Yes,
2,Roberto Padilla Hernandez,M,1995,26,,NV,Raw,Open,121.3,125,190,205,217.5,217.5,-107.5,117.5,125,125,222.5,235,-247.5,235,577.5,SBD,Yes,
3,Joseph Thomas,M,2002,19,,NV,Raw,Open,112.65,125,-193,193,-205,193,115,-125,125,125,206,212.5,-227.5,212.5,530.5,SBD,Yes,
1,Joel Anderson,M,1986,35,,CA,Raw,Submasters 35-39,74.6,75,190,197.5,202.5,202.5,105,110,-112.5,110,220,227.5,-230,227.5,540,SBD,Yes,
1,Matthew Dahilig,M,2001,19,,NV,Raw,Teen 18-19,118.6,125,,,,,130,135,-140,135,,,,,135,B,Yes,
