﻿Ergebnisse "Sachsen Anhalt - Open" im Bankdrücken, 22. März 2009 / Arendsee
Klasse                                                                        Platzierung   Name                                          Körpergew.   1. Versuch   2. Versuch   3. Versuch  Gesamtpkt.
Frauen / Aktive                                                               1. Platz             Anne Schilling        Lüneburg         63,0 kg      65,0 kg      72,5 kg      77,5 kg                  124,34
Frauen / Masters III                                                          1. Platz             Ingrid Cedel          Stendal          59,6 kg      45,0 kg      50,0 kg      52,5 kg                  93,92
Junioren                                                                      1. Platz             Christian Lukow       Genthin          65,5 kg      105,0 kg     107,5 kg     112,5 kg                 47,00
bis 23 Jahre                                                                  2. Platz             Maik Hiepler          Genthin          74,8 kg      100,0 kg     105,0 kg     110,0 kg                 35,20
Leichtgewicht -75kg                                                           3. Platz             Steffen Burk          Hohen Wangelin   61,3 kg      80,0 kg      85,0 kg      90,0 kg                  23,70
                                                                              4. Platz             Christopher Willems   Hohen Wangelin   65,6 kg      80,0 kg      87,5 kg      92,5 kg                  21,90
Mittelgewicht -95kg                                                           1. Platz             Julian Rose           Heide            78,2 kg      145,0 kg     150,0 kg     155,0 kg                 71,80
                                                                              2. Platz             Aaron Blunck          Lüneburg         81,5 kg      130,0 kg     140,0 kg     145,0 kg                 58,50
                                                                              2. Platz             Alexander Ernst       Genthin          86,5 kg      130,0 kg     135,0 kg     145,0 kg                 58,50
                                                                              3. Platz             Bastian Schwark       Bad Doberan      84,0 kg      95,0 kg      105,0 kg     112,5 kg                 21,00
Schwergewicht -115kg                                                          1. Platz             Martin Robert         Mönchenfrei      103,3 kg     155,0 kg     155,0 kg     160,0 kg                 51,70
                                                                              2. Platz             Stefan Schubert       Mönchenfrei      98,0 kg      145,0 kg     150,0 kg     150,0 kg                 47,00
Superschwergewicht +115kg                                                     1. Platz             Tim Büchtmann         Lüneburg         115,5 kg     155,0 kg     162,5 kg     170,0 kg                 54,50
Aktive bis 39 Jahre                                                           1. Platz             Mathias Löper         Genthin          81,4 kg      150,0 kg     155,0 kg     160,0 kg                 78,60
Mittelgewicht -95kg                                                           2. Platz             Alexander Hoppe       Oranienbaum      84,1 kg      145,0 kg     152,5 kg     157,5 kg                 73,40
                                                                              3. Platz             Marcel Marossow       Bad Doberan      91,0 kg      155,0 kg     162,5 kg     167,5 kg                 71,50
                                                                              4. Platz             Marcel Gursch         Genthin          78,4 kg      135,0 kg     140,0 kg     142,5 kg                 64,10
                                                                              5. Platz             Michael Reiß          Genthin          83,5 kg      135,0 kg     140,0 kg     147,5 kg                 64,00
                                                                              6. Platz             Sven Stelter          Genthin          84,1 kg      125,0 kg     130,0 kg     135,0 kg                 50,90
Schwergewicht -115kg                                                          1. Platz             Lars Göhler           Mönchenfrei      108,2 kg     185,0 kg     190,0 kg     192,5 kg                 81,80
                                                                              2. Platz             Rami Mansour          Ratzeburg        101,3 kg     160,0 kg     170,0 kg     170,0 kg                 68,70
                                                                              3. Platz             Dirk Thalheim         Mönchenfrei      108,8 kg     175,0 kg     175,0 kg     175,0 kg                 66,20
                                                                              4. Platz             Manuel Halser         Mönchenfrei      98,7 kg      155,0 kg     160,0 kg     162,5 kg                 61,30
                                                                              5. Platz             Mathias Pfaff         Genthin          105,0 kg     100,0 kg     105,0 kg     110,0 kg                 5,00
Superschwergewicht +115kg                                                     1. Platz             Kai Uwe Werner        Neubrandenburg   124,0 kg     200,0 kg     205,0 kg     210,0 kg                 81,00
                                                                              2. Platz             Sergej Moser          Stuttgart        130,0 kg     210,0 kg     220,0 kg     220,0 kg                 80,00
                                                                              3. Platz             Danny Schmalz         Neubrandenburg   126,0 kg     200,0 kg     205,0 kg     205,0 kg                 74,00
                                                                              4. Platz             Swen Wetzel           Bad Doberan      130,0 kg     150,0 kg     160,0 kg     165,0 kg                 30,00

Masters I ab 40 Jahre
Leichtgewicht -75kg                                    1. Platz          Andreas Pöhls         Brüel          74,9 kg    155,0 kg   160,0 kg   165,0 kg   85,10 DR
Mittelgewicht -95kg                                    1. Platz          Axel Gent             Grieben        88,6 kg    155,0 kg   162,5 kg   167,5 kg   78,90
                                                       2. Platz          Torsten Jaap          Perleberg      85,1 kg    140,0 kg   150,0 kg   160,0 kg   74,90
                                                       3. Platz          Rene Kupfernagel      Genthin        80,6 kg    140,0 kg   145,0 kg   150,0 kg   69,40
                                                       4. Platz          Norbert Dittrich      Grieben        91,2 kg    132,5 kg   140,0 kg   145,0 kg   53,80
Superschwergewicht +115kg                              1. Platz          Rainer Volkmann       Schwedt        123,1 kg   200,0 kg   207,5 kg   212,5 kg   89,40 DR
                                                       2. Platz          Rene Lauterbach       Parchim        153,5 kg   165,0 kg   172,5 kg   180,0 kg   19,00
Masters II ab 50 Jahre
Leichtgewicht -75kg                                    1. Platz          Norbert Rösel         Heide          72,4 kg    117,5 kg   122,5 kg   125,0 kg   52,60 DR
Masters III ab 60 Jahre
Leichtgewicht -75kg                                    1. Platz          Gerd Cedel            Stendal        69,1 kg    87,5 kg    92,5 kg    92,5 kg    18,40
Mittelgewicht -95kg                                    1. Platz          Manfred Grothe        Fichtenwalde   80,6 kg    130,0 kg   140,0 kg   140,0 kg   59,40
                                                       2. Platz          Gerd Rickershenrich   Fichtenwalde   89,8 kg    95,0 kg    100,0 kg   105,0 kg   15,20
Superschwergewicht +115kg                              1. Platz          Peter Schwarz         Hannover       123,0 kg   105,0 kg   115,0 kg   115,0 kg   ---
Gesamtsieger / nach Relativpunkten, Reshel - Tabelle
Frauen:                                                Anne Schilling    Lüneburg
Junioren:                                              Julian Rose       Heide
Aktive:                                                Sergej Moser      Stuttgart
Masters I:                                             Rainer Volkmann   Schwedt
Masters II:                                            Norbert Rösel     Heide
Masters III:                                           Manfred Grothe    Fichtenwalde
